module gitlab.com/bankwing/go-service

go 1.12

require (
	github.com/dgrijalva/jwt-go v3.2.0+incompatible // indirect
	github.com/labstack/echo v3.3.10+incompatible
	github.com/labstack/gommon v0.2.8 // indirect
	github.com/mattn/go-colorable v0.1.2 // indirect
	github.com/stretchr/testify v1.3.0
	github.com/valyala/fasttemplate v1.0.1 // indirect
	golang.org/x/crypto v0.0.0-20190605123033-f99c8df09eb5 // indirect
)
